%YAML 1.1
%TAG !u! tag:unity3d.com,2011:
--- !u!114 &11400000
MonoBehaviour:
  m_ObjectHideFlags: 0
  m_CorrespondingSourceObject: {fileID: 0}
  m_PrefabInstance: {fileID: 0}
  m_PrefabAsset: {fileID: 0}
  m_GameObject: {fileID: 0}
  m_Enabled: 1
  m_EditorHideFlags: 0
  m_Script: {fileID: 11500000, guid: 583d44d32adb5784f805b0d20f0f5287, type: 3}
  m_Name: ClanName_Winner
  m_EditorClassIdentifier: 
  clanName: Winner
  clanType: 1
  clanGrowthModifier:
    clanStandingsMin: 0
    clanStandingsMax: 0
    clanMembersMin: 0
    clanMembersMax: 0
    hostilityRateMin: 0
    hostilityRateMax: 0
    allegianceRateMin: 0
    allegianceRateMax: 0
    influenceRateMin: 0
    influenceRateMax: 0
    expansionRateMin: 0
    expansionRateMax: 0
  clanEffectorModifier:
    clanMembersEffector: 2
    standingEffector: -0.39
    hostilityEffector: -0.45
    allegianceEffector: 0.12
    influenceEffector: 0.25
    expansionEffector: 0.39
